<?xml version="1.0" encoding="iso-8859-1"?>
<!-- Generator: Adobe Illustrator 19.0.0, SVG Export Plug-In . SVG Version: 6.00 Build 0)  -->
<svg version="1.1" id="Layer_1" xmlns="http://www.w3.org/2000/svg" xmlns:xlink="http://www.w3.org/1999/xlink" x="0px" y="0px"
	 viewBox="0 0 512 512" style="enable-background:new 0 0 512 512;" xml:space="preserve">
<rect x="21.336" y="309.839" style="fill:#8C5549;" width="469.321" height="45.606"/>
<g style="opacity:0.15;">
	<rect x="21.336" y="309.839" style="fill:#202020;" width="26.188" height="45.606"/>
</g>
<path style="fill:#EFAC52;" d="M430.157,231.939h53.777c9.957-1.887,23.17-10.863,16.871-46.916
	C480.582,89.515,391.054,17.529,283.677,17.529h-55.355c-107.052,0-196.367,71.545-216.95,166.616c0,0-9.536,47.793,26.392,47.793
	h366.801"/>
<g style="opacity:0.15;">
	<path style="fill:#202020;" d="M254.428,17.529h-26.106c-107.052,0-196.367,71.545-216.95,166.616c0,0-9.536,47.793,26.392,47.793
		h26.106c-35.928,0-26.391-47.793-26.391-47.793C58.061,89.074,147.376,17.529,254.428,17.529z"/>
</g>
<path style="fill:#EFAC52;" d="M95.346,494.471h387.289c11.799,0,21.367-9.926,21.367-22.163v-12.922v-0.56
	c0-0.325-0.033-0.642-0.048-0.962c0.015-0.327,0.048-0.642,0.048-0.968v-2.224v-8.766c0-0.327-0.033-0.642-0.048-0.966
	c0.015-0.321,0.048-0.64,0.048-0.964v-9.778H274.068l-18.41,22.064l-18.116-22.064H7.997v9.778c0,0.325,0.033,0.643,0.048,0.964
	c-0.015,0.325-0.048,0.64-0.048,0.966v8.766v2.224c0,0.327,0.033,0.642,0.048,0.968c-0.015,0.321-0.048,0.638-0.048,0.962v0.56
	v12.922c0,12.238,9.57,22.163,21.369,22.163h40.389"/>
<g style="opacity:0.15;">
	<path style="fill:#202020;" d="M34.227,472.308v-12.922v-0.56c0-0.325,0.033-0.642,0.048-0.962
		c-0.015-0.327-0.048-0.642-0.048-0.968v-2.224v-8.766c0-0.327,0.033-0.642,0.048-0.966c-0.015-0.321-0.048-0.64-0.048-0.964v-9.778
		H7.997v9.778c0,0.325,0.033,0.643,0.048,0.964c-0.015,0.325-0.048,0.64-0.048,0.966v8.766v2.224c0,0.327,0.033,0.642,0.048,0.968
		c-0.015,0.321-0.048,0.638-0.048,0.962v0.56v12.922c0,12.238,9.57,22.163,21.369,22.163h26.23
		C43.796,494.471,34.227,484.546,34.227,472.308z"/>
</g>
<polygon style="fill:#FCAF29;" points="255.659,456.262 255.659,456.262 172.887,355.446 339.782,355.446 "/>
<g style="opacity:0.15;">
	<polygon style="fill:#202020;" points="201.141,355.446 172.887,355.446 255.659,456.262 269.901,439.195 	"/>
</g>
<g>
	<path style="fill:#D33D3D;" d="M455.621,355.446H339.782l-65.714,78.752h181.553c19.351,0,35.039-16.273,35.039-36.347v-6.059
		C490.66,371.718,474.971,355.446,455.621,355.446z"/>
	<path style="fill:#D33D3D;" d="M172.887,355.446H56.379c-19.351,0-35.039,16.273-35.039,36.347v6.059
		c0,20.074,15.688,36.347,35.039,36.347h181.162L172.887,355.446z"/>
</g>
<g style="opacity:0.15;">
	<path style="fill:#202020;" d="M47.618,397.85v-6.059c0-20.074,15.688-36.347,35.039-36.347H56.379
		c-19.351,0-35.039,16.273-35.039,36.347v6.059c0,20.074,15.688,36.347,35.039,36.347h26.278
		C63.306,434.198,47.618,417.924,47.618,397.85z"/>
</g>
<g>
	<path style="fill:#202020;" d="M37.765,239.935h366.801c4.418,0,7.997-3.579,7.997-7.997c0-4.418-3.579-7.997-7.997-7.997H37.765
		c-6.332,0-10.914-1.827-14.01-5.585c-7.221-8.772-5.74-26.455-4.551-32.592C39.342,92.908,127.277,25.526,228.323,25.526h55.355
		c101.457,0,189.445,67.703,209.274,161.011c2.687,15.48,3.094,34.336-9.849,37.404h-52.945c-4.418,0-7.997,3.579-7.997,7.997
		c0,4.418,3.579,7.997,7.997,7.997h53.777c0.5,0,0.999-0.047,1.49-0.14c8.862-1.679,15.808-6.768,20.084-14.712
		c5.218-9.694,6.287-23.635,3.175-41.438c-0.016-0.094-0.034-0.188-0.054-0.28c-10.253-48.43-38.232-92.541-78.782-124.207
		C388.868,27.156,336.958,9.532,283.677,9.532h-55.355c-53.111,0-104.894,17.523-145.81,49.34
		c-40.477,31.476-68.518,75.364-78.956,123.58c-0.01,0.043-0.018,0.084-0.027,0.127c-0.597,2.992-5.447,29.695,7.842,45.897
		C15.659,233.705,23.718,239.935,37.765,239.935z"/>
	<path style="fill:#202020;" d="M512,434.198c0-4.418-3.579-7.997-7.997-7.997h-15.319c6.223-7.692,9.974-17.577,9.974-28.35v-6.059
		c0-10.774-3.751-20.658-9.974-28.35h1.977c4.418,0,7.997-3.579,7.997-7.997v-45.606c0-4.418-3.579-7.997-7.997-7.997H21.34
		c-4.418,0-7.997,3.579-7.997,7.997v45.606c0,4.418,3.579,7.997,7.997,7.997h1.977c-6.223,7.692-9.974,17.577-9.974,28.35v6.059
		c0,10.774,3.751,20.658,9.974,28.35H7.997c-4.418,0-7.997,3.579-7.997,7.997v9.778c0,0.324,0.014,0.644,0.033,0.964
		C0.014,445.259,0,445.58,0,445.905v10.99c0,0.326,0.014,0.645,0.033,0.966c-0.02,0.32-0.033,0.64-0.033,0.964v13.483
		c0,16.631,13.173,30.16,29.366,30.16h40.389c4.418,0,7.997-3.579,7.997-7.997c0-4.418-3.579-7.997-7.997-7.997H29.366
		c-7.373,0-13.372-6.355-13.372-14.165l-0.001-13.391l0.011-0.176c0.012-0.172,0.022-0.342,0.03-0.514c0.012-0.24,0.012-0.48,0-0.72
		c-0.007-0.178-0.019-0.353-0.03-0.527l-0.011-10.986l0.011-0.174c0.012-0.174,0.022-0.348,0.03-0.524
		c0.012-0.241,0.012-0.481,0-0.722c-0.007-0.171-0.019-0.341-0.03-0.512l-0.01-1.869h40.385h177.382l15.716,19.142
		c0.377,0.461,0.803,0.873,1.264,1.233c1.384,1.079,3.099,1.684,4.886,1.69h0.001c0.011,0,0.02,0,0.031,0
		c0.296,0,0.591-0.017,0.882-0.049c2.04-0.226,3.929-1.232,5.258-2.825l16.013-19.191h177.809h40.386v1.69l-0.011,0.179
		c-0.012,0.171-0.022,0.341-0.03,0.512c-0.012,0.241-0.012,0.481,0,0.722c0.007,0.176,0.019,0.35,0.03,0.524l0.011,10.985
		l-0.011,0.175c-0.012,0.174-0.022,0.349-0.03,0.527c-0.012,0.24-0.012,0.48,0,0.72c0.007,0.172,0.019,0.342,0.03,0.514l0.01,13.567
		c0,7.81-5.998,14.165-13.37,14.165H95.346c-4.418,0-7.997,3.579-7.997,7.997c0,4.418,3.579,7.997,7.997,7.997h387.289
		c16.192,0,29.364-13.529,29.364-30.16v-13.483c0-0.325-0.014-0.644-0.033-0.964c0.02-0.321,0.033-0.641,0.033-0.966v-10.99
		c0-0.326-0.014-0.646-0.033-0.966c0.02-0.32,0.033-0.641,0.033-0.964L512,434.198L512,434.198z M29.338,317.836h453.325v29.612
		h-27.042H339.782H172.887H56.379H29.338V317.836z M56.379,426.201c-14.911,0-27.042-12.719-27.042-28.35v-6.059
		c0-15.632,12.131-28.35,27.042-28.35h25.172v18.863c0,4.418,3.579,7.997,7.997,7.997c4.418,0,7.997-3.579,7.997-7.997v-18.863
		h34.042v18.863c0,4.418,3.579,7.997,7.997,7.997s7.997-3.579,7.997-7.997v-18.863h21.524l16.835,20.506l34.689,42.252H56.379
		V426.201z M189.799,363.443h132.894l-5.466,6.55l-49.3,59.082l-12.22,14.645L189.799,363.443z M291.157,426.201l49.767-59.644
		l2.599-3.115h18.231v18.863c0,4.418,3.579,7.997,7.997,7.997c4.418,0,7.997-3.579,7.997-7.997v-18.863h34.042v18.863
		c0,4.418,3.579,7.997,7.997,7.997c4.418,0,7.997-3.579,7.997-7.997v-18.863h27.836c14.911,0,27.042,12.719,27.042,28.35v6.059
		c0,15.632-12.131,28.35-27.042,28.35L291.157,426.201L291.157,426.201z"/>
	<path style="fill:#202020;" d="M497.933,281.107l-39.282-32.399c-0.01-0.007-0.02-0.014-0.03-0.022
		c-0.133-0.11-0.274-0.208-0.414-0.307c-0.08-0.057-0.157-0.119-0.238-0.174c-0.114-0.076-0.234-0.14-0.35-0.209
		c-0.114-0.067-0.226-0.14-0.342-0.2c-0.046-0.023-0.094-0.043-0.14-0.065c-1.366-0.685-2.871-0.954-4.341-0.812
		c-0.669,0.064-1.33,0.221-1.972,0.454c-0.09,0.032-0.18,0.059-0.269,0.095c-0.092,0.037-0.18,0.084-0.271,0.125
		c-0.15,0.067-0.303,0.133-0.449,0.21c-0.052,0.028-0.102,0.062-0.154,0.091c-0.181,0.1-0.361,0.204-0.535,0.319
		c-0.043,0.029-0.083,0.062-0.126,0.092c-0.177,0.123-0.353,0.248-0.521,0.387c-0.007,0.005-0.015,0.011-0.022,0.016l-34.219,28.188
		l-34.201-28.205c-0.005-0.004-0.012-0.009-0.017-0.013c-0.186-0.152-0.377-0.292-0.573-0.425c-0.025-0.017-0.048-0.037-0.074-0.053
		c-0.193-0.128-0.392-0.244-0.594-0.355c-0.032-0.018-0.063-0.038-0.095-0.055c-0.168-0.089-0.342-0.165-0.516-0.241
		c-0.068-0.03-0.135-0.066-0.205-0.095c-0.108-0.044-0.22-0.077-0.329-0.116c-0.79-0.282-1.61-0.435-2.433-0.461
		c-1.025-0.033-2.055,0.131-3.036,0.496c-0.074,0.028-0.148,0.048-0.221,0.078c-0.09,0.036-0.176,0.082-0.264,0.123
		c-0.154,0.068-0.307,0.134-0.456,0.213c-0.046,0.023-0.09,0.053-0.134,0.079c-0.188,0.103-0.374,0.211-0.556,0.331
		c-0.037,0.025-0.073,0.054-0.109,0.079c-0.183,0.126-0.364,0.256-0.537,0.399c-0.006,0.005-0.014,0.01-0.021,0.016l-34.215,28.187
		l-34.201-28.204c-1.528-1.26-3.385-1.853-5.223-1.821c-1.848-0.041-3.718,0.55-5.256,1.816l-34.217,28.188l-34.203-28.205
		c-0.005-0.005-0.012-0.009-0.018-0.014c-0.18-0.148-0.367-0.284-0.557-0.414c-0.031-0.021-0.06-0.046-0.091-0.066
		c-0.182-0.122-0.371-0.23-0.561-0.335c-0.044-0.025-0.085-0.053-0.129-0.076c-0.149-0.079-0.304-0.145-0.457-0.214
		c-0.089-0.039-0.174-0.085-0.263-0.122c-0.072-0.03-0.148-0.051-0.222-0.078c-0.872-0.325-1.785-0.495-2.698-0.504
		c-0.995-0.012-1.993,0.164-2.943,0.527c-0.05,0.019-0.102,0.033-0.152,0.053c-0.103,0.042-0.204,0.095-0.306,0.141
		c-0.139,0.063-0.279,0.123-0.415,0.194c-0.057,0.03-0.11,0.066-0.166,0.097c-0.177,0.099-0.353,0.199-0.524,0.311
		c-0.047,0.031-0.092,0.068-0.138,0.1c-0.173,0.119-0.344,0.243-0.509,0.377c-0.007,0.006-0.016,0.011-0.023,0.017l-34.213,28.185
		l-34.201-28.204c-0.006-0.005-0.014-0.011-0.021-0.016c-0.167-0.138-0.342-0.263-0.519-0.386c-0.044-0.03-0.085-0.065-0.129-0.094
		c-0.163-0.108-0.332-0.204-0.501-0.3c-0.064-0.036-0.126-0.078-0.191-0.112c-0.117-0.062-0.24-0.113-0.359-0.168
		c-0.12-0.057-0.24-0.117-0.363-0.167c-0.015-0.006-0.03-0.01-0.045-0.016c-1.128-0.45-2.329-0.625-3.512-0.543
		c-0.734,0.05-1.462,0.203-2.167,0.457c-0.096,0.034-0.194,0.063-0.289,0.101c-0.082,0.033-0.162,0.076-0.244,0.113
		c-0.16,0.071-0.32,0.141-0.476,0.223c-0.045,0.023-0.087,0.052-0.132,0.077c-0.189,0.105-0.376,0.212-0.558,0.333
		c-0.037,0.025-0.073,0.054-0.11,0.08c-0.182,0.126-0.363,0.256-0.536,0.398c-0.007,0.005-0.015,0.011-0.021,0.016l-34.217,28.186
		l-34.199-28.205c-0.214-0.177-0.435-0.34-0.662-0.492l-1.268-1.046c-2.955-2.435-7.22-2.438-10.173-0.003l-39.304,32.375
		c-3.409,2.809-3.896,7.848-1.089,11.258c2.811,3.408,7.85,3.895,11.258,1.089l34.217-28.185l34.195,28.206
		c0.138,0.113,0.29,0.194,0.433,0.296l1.501,1.238c1.477,1.219,3.282,1.828,5.088,1.828c1.803,0,3.608-0.608,5.085-1.824
		l34.217-28.185l34.201,28.205c1.477,1.219,3.282,1.828,5.087,1.828c1.803,0,3.608-0.608,5.084-1.824l34.214-28.185l34.202,28.205
		c1.478,1.219,3.282,1.828,5.088,1.828c1.803,0,3.608-0.608,5.085-1.824l34.369-28.312l34.354,28.332
		c1.477,1.219,3.282,1.828,5.088,1.828c1.803,0,3.608-0.608,5.085-1.824l34.216-28.187l34.2,28.205
		c1.477,1.219,3.282,1.828,5.087,1.828c1.803,0,3.608-0.608,5.085-1.824l34.218-28.187l34.197,28.204
		c1.491,1.228,3.293,1.828,5.084,1.828c2.304,0,4.592-0.992,6.174-2.909C501.825,288.957,501.34,283.918,497.933,281.107z"/>
</g>
<g>
</g>
<g>
</g>
<g>
</g>
<g>
</g>
<g>
</g>
<g>
</g>
<g>
</g>
<g>
</g>
<g>
</g>
<g>
</g>
<g>
</g>
<g>
</g>
<g>
</g>
<g>
</g>
<g>
</g>
</svg>
